\select@language {brazil}
\contentsline {section}{\numberline {1}Introdu\IeC {\c c}\IeC {\~a}o}{3}{section.1}
\contentsline {section}{\numberline {2}Projeto}{3}{section.2}
\contentsline {section}{\numberline {3}Resultados Computacionais}{6}{section.3}
\contentsline {subsection}{\numberline {3.1}ADD R1, R1, R1 \\ ADD R1, R1, R1}{6}{subsection.3.1}
\contentsline {subsection}{\numberline {3.2}ADD R2, R2, R2 \\ MUL R3, R2, R3}{7}{subsection.3.2}
\contentsline {subsection}{\numberline {3.3}ADD R3, R1, R2 \\ MUL R3, R6, R5}{8}{subsection.3.3}
\contentsline {subsection}{\numberline {3.4}LD R2, 0(R1) \\ ST R2, 0(R3)}{9}{subsection.3.4}
\contentsline {subsection}{\numberline {3.5}ST R4, 0(R1) \\ LD R3, 0(R2)}{10}{subsection.3.5}
\contentsline {subsection}{\numberline {3.6}ST R4, 0(R1) \\ LD R4, 0(R2)}{11}{subsection.3.6}
