\relax 
\providecommand\hyper@newdestlabel[2]{}
\catcode `"\active 
\providecommand\HyperFirstAtBeginDocument{\AtBeginDocument}
\HyperFirstAtBeginDocument{\ifx\hyper@anchor\@undefined
\global\let\oldcontentsline\contentsline
\gdef\contentsline#1#2#3#4{\oldcontentsline{#1}{#2}{#3}}
\global\let\oldnewlabel\newlabel
\gdef\newlabel#1#2{\newlabelxx{#1}#2}
\gdef\newlabelxx#1#2#3#4#5#6{\oldnewlabel{#1}{{#2}{#3}}}
\AtEndDocument{\ifx\hyper@anchor\@undefined
\let\contentsline\oldcontentsline
\let\newlabel\oldnewlabel
\fi}
\fi}
\global\let\hyper@last\relax 
\gdef\HyperFirstAtBeginDocument#1{#1}
\providecommand\HyField@AuxAddToFields[1]{}
\providecommand\HyField@AuxAddToCoFields[2]{}
\select@language{brazil}
\@writefile{toc}{\select@language{brazil}}
\@writefile{lof}{\select@language{brazil}}
\@writefile{lot}{\select@language{brazil}}
\@writefile{toc}{\contentsline {section}{\numberline {1}Introdu\IeC {\c c}\IeC {\~a}o}{3}{section.1}}
\@writefile{toc}{\contentsline {section}{\numberline {2}Projeto}{3}{section.2}}
\@writefile{lof}{\contentsline {figure}{\numberline {1}{\ignorespaces Arquitetura do \textit  {hardware}\relax }}{4}{figure.caption.4}}
\providecommand*\caption@xref[2]{\@setref\relax\@undefined{#1}}
\newlabel{fig:tomasulo}{{1}{4}{Arquitetura do \textit {hardware}\relax }{figure.caption.4}{}}
\@writefile{toc}{\contentsline {section}{\numberline {3}Resultados Computacionais}{6}{section.3}}
\@writefile{toc}{\contentsline {subsection}{\numberline {3.1}ADD R1, R1, R1 \\ ADD R1, R1, R1}{6}{subsection.3.1}}
\newlabel{fig:ADDeADD0}{{\caption@xref {fig:ADDeADD0}{ on input line 101}}{6}{ADD R1, R1, R1 \\ ADD R1, R1, R1}{figure.caption.6}{}}
\newlabel{fig:ADDeADD1}{{\caption@xref {fig:ADDeADD1}{ on input line 106}}{6}{ADD R1, R1, R1 \\ ADD R1, R1, R1}{figure.caption.7}{}}
\newlabel{fig:ADDeADD2}{{\caption@xref {fig:ADDeADD2}{ on input line 111}}{6}{ADD R1, R1, R1 \\ ADD R1, R1, R1}{figure.caption.8}{}}
\newlabel{fig:ADDeADD3}{{\caption@xref {fig:ADDeADD3}{ on input line 116}}{6}{ADD R1, R1, R1 \\ ADD R1, R1, R1}{figure.caption.9}{}}
\newlabel{fig:ADDeADD4}{{\caption@xref {fig:ADDeADD4}{ on input line 121}}{7}{ADD R1, R1, R1 \\ ADD R1, R1, R1}{figure.caption.10}{}}
\newlabel{fig:ADDeADD5}{{\caption@xref {fig:ADDeADD5}{ on input line 126}}{7}{ADD R1, R1, R1 \\ ADD R1, R1, R1}{figure.caption.11}{}}
\@writefile{toc}{\contentsline {subsection}{\numberline {3.2}ADD R2, R2, R2 \\ MUL R3, R2, R3}{7}{subsection.3.2}}
\newlabel{fig:ADDeMUL0}{{\caption@xref {fig:ADDeMUL0}{ on input line 132}}{7}{ADD R2, R2, R2 \\ MUL R3, R2, R3}{figure.caption.12}{}}
\newlabel{fig:ADDeMUL1}{{\caption@xref {fig:ADDeMUL1}{ on input line 137}}{7}{ADD R2, R2, R2 \\ MUL R3, R2, R3}{figure.caption.13}{}}
\newlabel{fig:ADDeMUL}{{\caption@xref {fig:ADDeMUL}{ on input line 142}}{8}{ADD R2, R2, R2 \\ MUL R3, R2, R3}{figure.caption.14}{}}
\newlabel{fig:ADDeMUL}{{\caption@xref {fig:ADDeMUL}{ on input line 147}}{8}{ADD R2, R2, R2 \\ MUL R3, R2, R3}{figure.caption.15}{}}
\newlabel{fig:ADDeMUL}{{\caption@xref {fig:ADDeMUL}{ on input line 152}}{8}{ADD R2, R2, R2 \\ MUL R3, R2, R3}{figure.caption.16}{}}
\@writefile{toc}{\contentsline {subsection}{\numberline {3.3}ADD R3, R1, R2 \\ MUL R3, R6, R5}{8}{subsection.3.3}}
\newlabel{fig:ADDeSUB}{{\caption@xref {fig:ADDeSUB}{ on input line 158}}{8}{ADD R3, R1, R2 \\ MUL R3, R6, R5}{figure.caption.17}{}}
\newlabel{fig:ADDeSUB}{{\caption@xref {fig:ADDeSUB}{ on input line 163}}{9}{ADD R3, R1, R2 \\ MUL R3, R6, R5}{figure.caption.18}{}}
\newlabel{fig:ADDeSUB}{{\caption@xref {fig:ADDeSUB}{ on input line 168}}{9}{ADD R3, R1, R2 \\ MUL R3, R6, R5}{figure.caption.19}{}}
\newlabel{fig:ADDeSUB}{{\caption@xref {fig:ADDeSUB}{ on input line 173}}{9}{ADD R3, R1, R2 \\ MUL R3, R6, R5}{figure.caption.20}{}}
\@writefile{toc}{\contentsline {subsection}{\numberline {3.4}LD R2, 0(R1) \\ ST R2, 0(R3)}{9}{subsection.3.4}}
\newlabel{fig:LDeST}{{\caption@xref {fig:LDeST}{ on input line 179}}{9}{LD R2, 0(R1) \\ ST R2, 0(R3)}{figure.caption.21}{}}
\newlabel{fig:LDeST}{{\caption@xref {fig:LDeST}{ on input line 184}}{10}{LD R2, 0(R1) \\ ST R2, 0(R3)}{figure.caption.22}{}}
\newlabel{fig:LDeST}{{\caption@xref {fig:LDeST}{ on input line 189}}{10}{LD R2, 0(R1) \\ ST R2, 0(R3)}{figure.caption.23}{}}
\newlabel{fig:LDeST}{{\caption@xref {fig:LDeST}{ on input line 194}}{10}{LD R2, 0(R1) \\ ST R2, 0(R3)}{figure.caption.24}{}}
\@writefile{toc}{\contentsline {subsection}{\numberline {3.5}ST R4, 0(R1) \\ LD R3, 0(R2)}{10}{subsection.3.5}}
\newlabel{fig:LDeST}{{\caption@xref {fig:LDeST}{ on input line 200}}{10}{ST R4, 0(R1) \\ LD R3, 0(R2)}{figure.caption.25}{}}
\newlabel{fig:LDeST}{{\caption@xref {fig:LDeST}{ on input line 205}}{11}{ST R4, 0(R1) \\ LD R3, 0(R2)}{figure.caption.26}{}}
\newlabel{fig:LDeST}{{\caption@xref {fig:LDeST}{ on input line 210}}{11}{ST R4, 0(R1) \\ LD R3, 0(R2)}{figure.caption.27}{}}
\@writefile{toc}{\contentsline {subsection}{\numberline {3.6}ST R4, 0(R1) \\ LD R4, 0(R2)}{11}{subsection.3.6}}
\newlabel{fig:LDeST}{{\caption@xref {fig:LDeST}{ on input line 216}}{11}{ST R4, 0(R1) \\ LD R4, 0(R2)}{figure.caption.28}{}}
\newlabel{fig:LDeST}{{\caption@xref {fig:LDeST}{ on input line 221}}{11}{ST R4, 0(R1) \\ LD R4, 0(R2)}{figure.caption.29}{}}
\newlabel{fig:LDeST}{{\caption@xref {fig:LDeST}{ on input line 226}}{12}{ST R4, 0(R1) \\ LD R4, 0(R2)}{figure.caption.30}{}}
